<svg xmlns="http://www.w3.org/2000/svg" width="16.011" height="12.727" viewBox="0 0 16.011 12.727">
  <g id="dashboard" transform="translate(0 -52.499)">
    <g id="Groupe_18407" data-name="Groupe 18407" transform="translate(0 52.499)">
      <g id="Groupe_18406" data-name="Groupe 18406">
        <path id="Tracé_11050" data-name="Tracé 11050" d="M203.506,123.681a.625.625,0,0,0-.794-.075c-.936.638-5.63,3.845-6.134,4.35a1.876,1.876,0,0,0,2.653,2.653c.5-.5,3.712-5.2,4.35-6.134A.626.626,0,0,0,203.506,123.681Zm-5.16,6.044a.625.625,0,0,1-.885-.884c.2-.194,1.529-1.144,3.168-2.284C199.49,128.2,198.54,129.53,198.346,129.726Z" transform="translate(-189.898 -121.278)" fill="#8ca0b3"/>
        <path id="Tracé_11051" data-name="Tracé 11051" d="M2.884,63.413l-.772.377a6.723,6.723,0,0,1-.422-5.684l.885.424A.625.625,0,1,0,3.116,57.4l-.873-.419A6.763,6.763,0,0,1,7.38,53.779v.941a.625.625,0,1,0,1.251,0v-.941a6.677,6.677,0,0,1,2.151.567A.625.625,0,1,0,11.3,53.2a8,8,0,0,0-9.94,11.744.625.625,0,0,0,.794.215l1.282-.625a.625.625,0,1,0-.548-1.124Z" transform="translate(0 -52.499)" fill="#8ca0b3"/>
        <path id="Tracé_11052" data-name="Tracé 11052" d="M393.1,191.862a.625.625,0,1,0-1.14.515,6.733,6.733,0,0,1-.269,6.066l-.806-.384a.625.625,0,1,0-.538,1.129l1.313.625a.625.625,0,0,0,.789-.217,7.987,7.987,0,0,0,.651-7.735Z" transform="translate(-377.799 -187.147)" fill="#8ca0b3"/>
      </g>
    </g>
  </g>
</svg>
