<svg id="tick" xmlns="http://www.w3.org/2000/svg" width="16" height="12" viewBox="0 0 16 12">
  <path id="Path" d="M15.766.239a.788.788,0,0,0-1.131,0L5.05,10.028,1.366,6.265a.788.788,0,0,0-1.131,0,.829.829,0,0,0,0,1.155l4.25,4.34a.788.788,0,0,0,1.131,0L15.766,1.395A.829.829,0,0,0,15.766.239Z" fill="#72b81d"/>
</svg>
