<svg xmlns="http://www.w3.org/2000/svg" width="13.9" height="14.347" viewBox="0 0 13.9 14.347">
  <path id="Tracé_10890" data-name="Tracé 10890" d="M107.577,3.47a.7.7,0,0,0-.66-.66,6.858,6.858,0,0,0-4.747,1.608,4.527,4.527,0,0,0-.5.593,6.566,6.566,0,0,0-1.641-3.086C97.939-.168,94.494,0,94.349,0a.7.7,0,0,0-.66.66c-.008.146-.173,3.59,1.921,5.683a7.7,7.7,0,0,0,4.947,1.914v5.383a.7.7,0,0,0,1.4,0h0V9.813a6.353,6.353,0,0,0,4.013-1.6A6.858,6.858,0,0,0,107.577,3.47ZM96.6,5.358a6.29,6.29,0,0,1-1.5-3.944,6.259,6.259,0,0,1,3.943,1.5,6.289,6.289,0,0,1,1.5,3.944A6.259,6.259,0,0,1,96.6,5.358Zm8.38,1.869a4.9,4.9,0,0,1-3,1.179,4.933,4.933,0,0,1,1.177-3,4.9,4.9,0,0,1,3-1.179A4.932,4.932,0,0,1,104.979,7.227Z" transform="translate(-93.683 0.002)" fill="#fff"/>
</svg>
