<svg xmlns="http://www.w3.org/2000/svg" width="17.275" height="17.306" viewBox="0 0 17.275 17.306">
  <g id="Groupe_17872" data-name="Groupe 17872" transform="translate(-257.264 -2649.255)">
    <g id="Groupe_17754" data-name="Groupe 17754" transform="translate(257.264 2649.255)">
      <path id="application-bourse" d="M17.728,7.9v4.353h-1.35V10.236l-4,4.01L10.718,12.6l-4.55,4.7-.97-.938,5.5-5.683,1.677,1.657,3.087-3.1H13.342V7.9ZM6.8,12.774a5.736,5.736,0,1,1,6.452-6.228H14.6a7.086,7.086,0,1,0-8.92,7.378Z" transform="translate(-0.453)" fill="#fff"/>
      <g id="euro" transform="translate(4.215 3.793)">
        <path id="Tracé_10747" data-name="Tracé 10747" d="M40.2,5.359c-.067-.165-.136-.33-.211-.492a.233.233,0,0,0-.31-.151c-.2.046-.4.107-.6.149a2.26,2.26,0,0,1-1.161-.032,1.37,1.37,0,0,1-.894-.949h1.3a.184.184,0,0,0,.185-.185V3.288a.184.184,0,0,0-.185-.185H36.9c0-.115,0-.225,0-.335h1.428a.184.184,0,0,0,.185-.185V2.173a.184.184,0,0,0-.185-.185H37.076a.019.019,0,0,1,0-.012,1.328,1.328,0,0,1,.726-.756,2.18,2.18,0,0,1,1.272-.072c.2.041.4.1.607.15a.229.229,0,0,0,.3-.149c.074-.16.141-.322.208-.486a.245.245,0,0,0-.119-.347A.771.771,0,0,0,39.96.262,3.519,3.519,0,0,0,38.1.043a2.659,2.659,0,0,0-1.235.509,2.706,2.706,0,0,0-.927,1.373l-.021.064h-.642a.184.184,0,0,0-.185.185v.411a.184.184,0,0,0,.185.185h.506V3.1h-.506a.184.184,0,0,0-.185.185V3.7a.184.184,0,0,0,.185.185h.609c.046.15.085.3.144.446a2.528,2.528,0,0,0,1.6,1.525,3.31,3.31,0,0,0,1.938.024,3.221,3.221,0,0,0,.5-.18A.236.236,0,0,0,40.2,5.359Z" transform="translate(-35.088 0)" fill="#fff"/>
      </g>
    </g>
  </g>
</svg>
